[gd_resource type="Resource" script_class="PoemFragment" load_steps=2 format=3 uid="uid://cc0ibfocybx7b"]

[ext_resource type="Script" path="res://poem/poem_fragment.gd" id="1_rs066"]

[resource]
script = ExtResource("1_rs066")
id = &"fragment_14"
themes = Array[StringName]([&"longing", &"loss"])
verse_codes = Array[StringName]([&"VERSE67", &"VERSE68", &"VERSE69", &"VERSE70", &"VERSE71", &"VERSE72"])
