[gd_resource type="Resource" script_class="PoemFragment" load_steps=2 format=3 uid="uid://dgffl0ukya6tf"]

[ext_resource type="Script" path="res://poem/poem_fragment.gd" id="1_fp8ex"]

[resource]
script = ExtResource("1_fp8ex")
id = &"fragment_11"
themes = Array[StringName]([&"longing", &"nature"])
verse_codes = Array[StringName]([&"VERSE47", &"VERSE48", &"VERSE49", &"VERSE50", &"VERSE51", &"VERSE52"])
