[gd_resource type="Resource" script_class="PoemFragment" load_steps=2 format=3 uid="uid://c1auh38km7kxn"]

[ext_resource type="Script" path="res://poem/poem_fragment.gd" id="1_q7c3u"]

[resource]
script = ExtResource("1_q7c3u")
id = &"fragment_1"
themes = Array[StringName]([&"nature", &"bandit"])
verse_codes = Array[StringName]([&"VERSE1", &"VERSE2", &"VERSE3", &"VERSE4"])
