[gd_resource type="Resource" script_class="PoemFragment" load_steps=2 format=3 uid="uid://com5ba1qt87vt"]

[ext_resource type="Script" path="res://poem/poem_fragment.gd" id="1_y06wt"]

[resource]
script = ExtResource("1_y06wt")
id = &"fragment_16"
themes = Array[StringName]([&"violence", &"night", &"acab"])
verse_codes = Array[StringName]([&"VERSE79", &"VERSE80", &"VERSE81", &"VERSE82"])
