[gd_resource type="Resource" script_class="PoemFragment" load_steps=2 format=3 uid="uid://dpqbxr1wbv6u2"]

[ext_resource type="Script" path="res://poem/poem_fragment.gd" id="1_2xt17"]

[resource]
script = ExtResource("1_2xt17")
id = &"fragment_3"
themes = Array[StringName]([&"longing", &"crucifix"])
verse_codes = Array[StringName]([&"VERSE9", &"VERSE10", &"VERSE11", &"VERSE12"])
